leeds.eesysoft.com:HSTS	0	19347	1703233892486,1,1,2
developer.blackboard.com^partitionKey=%28http%2Cblackboard.com%29:HSTS	2	19312	1700154360418,1,1,2
classify-client.services.mozilla.com:HSTS	41	19353	1703689894098,1,0,2
code.visualstudio.com^partitionKey=%28http%2Cvisualstudio.com%29:HSTS	0	19065	1678811868645,1,0,2
getbootstrap.com^partitionKey=%28http%2Cgetbootstrap.com%29:HSTS	8	19348	1703218717773,1,1,2
aus5.mozilla.org:HSTS	35	19353	1703690614013,1,0,2
tracking.digitalocean.com^partitionKey=%28http%2Cdigitalocean.com%29:HSTS	0	19346	1703031748934,1,0,2
www.freecodecamp.org^partitionKey=%28http%2Cfreecodecamp.org%29:HSTS	0	19346	1703035043809,1,1,2
ssl.ptlogin2.qq.com^partitionKey=%28http%2Cqq.com%29:HSTS	6	19347	1703119156055,1,0,2
connect.openathens.net^partitionKey=%28http%2Copenathens.net%29:HSTS	0	19347	1687377388911,1,1,2
stackoverflow.com^partitionKey=%28http%2Cstackoverflow.com%29:HSTS	4	19352	1687621999480,1,0,2
www.researchgate.net^partitionKey=%28http%2Cresearchgate.net%29:HSTS	0	19068	1663109508393,1,1,2
leeds.primo.exlibrisgroup.com:HSTS	0	19352	1673259600704,1,1,2
www.mozilla.org^partitionKey=%28http%2Cmozilla.org%29:HSTS	1	19292	1682555441912,1,1,2
firefox.settings.services.mozilla.com:HSTS	43	19353	1703691965353,1,0,2
wx.mail.qq.com^partitionKey=%28http%2Cqq.com%29:HSTS	5	19347	1703119159938,1,0,2
services.addons.mozilla.org:HSTS	41	19353	1703691966141,1,0,2
eu-west.azureauth.duosecurity.com^partitionKey=%28http%2Cduosecurity.com%29:HSTS	1	19269	1696421613749,1,0,2
cdn.osano.com^partitionKey=%28http%2Cosano.com%29:HSTS	0	19347	1703186789253,1,1,2
unpkg.com:HSTS	0	19347	1703146661132,1,1,2
wappass.baidu.com^partitionKey=%28http%2Cbaidu.com%29:HSTS	0	19300	1699079167271,1,0,2
webmasters.stackexchange.com^partitionKey=%28http%2Cstackexchange.com%29:HSTS	0	19346	1687050124856,1,0,2
passport.csdn.net^partitionKey=%28http%2Ccsdn.net%29:HSTS	1	19348	1703223453521,1,0,2
api-894eebdb.duosecurity.com^partitionKey=%28http%2Cduosecurity.com%29:HSTS	1	19269	1696421613627,1,0,2
developer.mozilla.org^partitionKey=%28http%2Cmozilla.org%29:HSTS	1	19348	1703204760716,1,0,2
cdnjs.cloudflare.com:HSTS	3	19352	1687798813487,1,0,2
smetrics.redhat.com^partitionKey=%28http%2Credhat.com%29:HSTS	2	19335	1702135747110,1,1,2
marketplace.visualstudio.com^partitionKey=%28http%2Cvisualstudio.com%29:HSTS	0	19065	1678811866179,1,1,2
alt-6100e9398f586.blackboard.com^partitionKey=%28http%2Cblackboard.com%29:HSTS	23	19353	1735225973765,1,1,2
www.gradescope.com^partitionKey=%28http%2Cgradescope.com%29:HSTS	2	19312	1700154360332,1,1,2
kunyu.csdn.net^partitionKey=%28http%2Ccsdn.net%29:HSTS	1	19348	1703221706058,1,0,2
www.csdn.net^partitionKey=%28http%2Ccsdn.net%29:HSTS	0	19348	1703221684294,1,0,2
icons.getbootstrap.com^partitionKey=%28http%2Cgetbootstrap.com%29:HSTS	0	19335	1702140935852,1,1,2
contile.services.mozilla.com:HSTS	32	19353	1703691967984,1,0,2
www.google.com^firstPartyDomain=google-b-e.search.suggestions.mozilla:HSTS	17	19353	1703690217494,1,0,2
www.centos.org^partitionKey=%28http%2Ccentos.org%29:HSTS	8	19269	1696421568152,1,0,2
r4.res.office365.com^partitionKey=%28http%2Coffice365.com%29:HSTS	1	19286	1697924238661,1,1,2
ui.ptlogin2.qq.com^partitionKey=%28http%2Cqq.com%29:HSTS	0	19069	1679101515697,1,0,2
www.baidu.com^partitionKey=%28http%2Cbaidu.com%29:HSTS	0	19300	1667716580864,1,0,2
so.csdn.net^partitionKey=%28http%2Ccsdn.net%29:HSTS	0	19348	1672549718829,1,0,2
studentservices.leeds.ac.uk^partitionKey=%28http%2Cleeds.ac.uk%29:HSTS	1	19300	1683099870986,1,1,2
attachments.office.net^partitionKey=%28http%2Coffice.net%29:HSTS	3	19299	1699025499442,1,1,2
www.google.com^partitionKey=%28http%2Cgoogle.com%29:HSTS	17	19353	1703690220343,1,0,2
clc.stackoverflow.com^partitionKey=%28http%2Cstackoverflow.com%29:HSTS	4	19352	1674661864067,1,0,2
login.microsoftonline.com^partitionKey=%28http%2Cmicrosoftonline.com%29:HSTS	34	19353	1703689870477,1,1,2
www.qt.io^partitionKey=%28http%2Cqt.io%29:HSTS	1	19319	1700781727703,1,0,2
passport.gitcode.net^partitionKey=%28http%2Cgitcode.net%29:HSTS	0	19348	1703223130537,1,0,2
www.youtube.com^partitionKey=%28http%2Cyoutube.com%29:HSTS	0	19347	1703147892900,1,0,2
minerva.leeds.ac.uk^partitionKey=%28http%2Cleeds.ac.uk%29:HSTS	39	19353	1735226782639,1,1,2
login.wikimedia.org^partitionKey=%28http%2Cwikimedia.org%29:HSTS	0	19069	1753949809900,1,1,2
cmp.osano.com^partitionKey=%28http%2Cosano.com%29:HSTS	0	19347	1674242734047,1,0,2
addons.mozilla.org:HSTS	0	19299	1699043690408,1,1,2
flask-admin.readthedocs.io^partitionKey=%28http%2Cflask-admin.readthedocs.io%29:HSTS	0	19347	1703192077309,1,1,2
incoming.telemetry.mozilla.org:HSTS	44	19353	1703692780560,1,0,2
adm-minerva.leeds.ac.uk^partitionKey=%28http%2Cleeds.ac.uk%29:HSTS	30	19347	1734735092522,1,1,2
youtube.com^partitionKey=%28http%2Cyoutube.com%29:HSTS	0	19347	1703146421927,1,1,2
location.services.mozilla.com:HSTS	12	19352	1703549735630,1,1,2
www.pluralsight.com^partitionKey=%28http%2Cpluralsight.com%29:HSTS	0	19299	1699045940436,1,1,2
app.pluralsight.com^partitionKey=%28http%2Cpluralsight.com%29:HSTS	0	19299	1699045938811,1,1,2
alt-6100e9398f586.blackboard.com:HSTS	0	19300	1730592473655,1,1,2
leeds365-my.sharepoint.com^partitionKey=%28http%2Csharepoint.com%29:HSTS	0	19286	1697924193354,1,0,2
xui.ptlogin2.qq.com^partitionKey=%28http%2Cqq.com%29:HSTS	6	19347	1703119133123,1,0,2
webshell.suite.office.com^partitionKey=%28http%2Coffice.com%29:HSTS	5	19300	1670139906605,1,0,2
stt.pluralsight.com^partitionKey=%28http%2Cpluralsight.com%29:HSTS	0	19299	1699045939090,1,1,2
mymedia.leeds.ac.uk^partitionKey=%28http%2Cleeds.ac.uk%29:HSTS	1	19300	1683622474145,1,1,2
flatlogic.com^partitionKey=%28http%2Cflatlogic.com%29:HSTS	0	19299	1699045947323,1,1,2
leeds.alma.exlibrisgroup.com:HSTS	1	19352	1703586001451,1,1,2
www.w3.org^partitionKey=%28http%2Cw3.org%29:HSTS	0	19345	1687042071498,1,1,2
id.redhat.com^partitionKey=%28http%2Credhat.com%29:HSTS	2	19335	1702135746047,1,1,2
leeds.primo.exlibrisgroup.com^partitionKey=%28http%2Cexlibrisgroup.com%29:HSTS	1	19352	1673264660702,1,1,2
shavar.services.mozilla.com^firstPartyDomain=safebrowsing.86868755-6b82-4842-b301-72671a0db32e.mozilla:HSTS	42	19353	1703689870336,1,1,2
meta.wikimedia.org^partitionKey=%28http%2Cwikimedia.org%29:HSTS	0	19069	1753949809824,1,1,2
www.pythonanywhere.com^partitionKey=%28http%2Cwww.pythonanywhere.com%29:HSTS	1	19353	1703689978084,1,0,2
outlook.office365.com^partitionKey=%28http%2Coffice365.com%29:HSTS	7	19300	1699083878656,1,1,2
gitlab.com^partitionKey=%28http%2Cgitlab.com%29:HSTS	4	19353	1703692828799,1,0,2
www.phphelp.com^partitionKey=%28http%2Cphphelp.com%29:HSTS	0	19352	1703596053095,1,0,2
ssl.ptlogin2.mail.qq.com^partitionKey=%28http%2Cqq.com%29:HSTS	6	19347	1703119158078,1,0,2
commons.wikimedia.org^partitionKey=%28http%2Cwikimedia.org%29:HSTS	0	19069	1753949810305,1,1,2
leeds.alma.exlibrisgroup.com^partitionKey=%28http%2Cexlibrisgroup.com%29:HSTS	1	19352	1703591065878,1,1,2
devpress-api.csdn.net^partitionKey=%28http%2Ccsdn.net%29:HSTS	1	19348	1703223153495,1,0,2
flask-login.readthedocs.io^partitionKey=%28http%2Cflask-login.readthedocs.io%29:HSTS	0	19347	1703199816825,1,1,2
outlook.office.com^partitionKey=%28http%2Coffice.com%29:HSTS	2	19300	1699084230994,1,1,2
about.gitlab.com^partitionKey=%28http%2Cgitlab.com%29:HSTS	1	19353	1672154526806,1,0,2
spocs.getpocket.com:HSTS	43	19353	1735227965149,1,0,2
blog.csdn.net^partitionKey=%28http%2Ccsdn.net%29:HSTS	1	19348	1703223140238,1,0,2
stackpath.bootstrapcdn.com:HSTS	5	19352	1703605648227,1,1,2
upload.wikimedia.org^partitionKey=%28http%2Cwikimedia.org%29:HSTS	0	19069	1753949810285,1,1,2
somni.pluralsight.com^partitionKey=%28http%2Cpluralsight.com%29:HSTS	0	19299	1699045940692,1,1,2
normandy.cdn.mozilla.net:HSTS	41	19353	1703689893882,1,0,2
login.openathens.net^partitionKey=%28http%2Copenathens.net%29:HSTS	1	19352	1735134118159,1,1,2
www.osano.com^partitionKey=%28http%2Cosano.com%29:HSTS	0	19347	1734722783344,1,1,2
www.redhat.com^partitionKey=%28http%2Credhat.com%29:HSTS	2	19335	1702135747355,1,0,2
